…
Here, I was applying an operation to a grouped df where each
`Experiment` contains several `FileName`s with multiple observations in
each. To keep everything reusable I'm using `exp` instead of
`Experiment` to select the right col.

``` r
> exp = "Experiment"
> rec = "FileName"

> df %>%
+     dplyr::select(
+       exp, rec, r11, r12
+     )
# A tibble: 564 x 4
   Experiment FileName           r11   r12
   <chr>      <chr>            <dbl> <dbl>
 1 190808a    190808a_0020.abf  5.06 0.150
 2 190808a    190808a_0020.abf  5.13 0.160
 3 190808a    190808a_0020.abf  5.11 0.122
 4 190808a    190808a_0020.abf  2.49 0.152
 5 190808a    190808a_0020.abf  2.49 0.195
# ... with 559 more rows
```
…
No dice there. `vars()` is designed to work with the `_at` variants so we can try that. *et voilà!*

``` r
> df %>%
+     dplyr::select(
+       exp, rec, r11, r12
+     ) %>%
+     group_by_at(vars(exp, rec))

# A tibble: 564 x 4
# Groups:   Experiment, FileName [69]
   Experiment FileName           r11   r12
   <chr>      <chr>            <dbl> <dbl>
 1 190808a    190808a_0020.abf  5.06 0.150
 2 190808a    190808a_0020.abf  5.13 0.160
 3 190808a    190808a_0020.abf  5.11 0.122
 4 190808a    190808a_0020.abf  2.49 0.152
 5 190808a    190808a_0020.abf  2.49 0.195
# ... with 559 more rows
```
